Artificial Neural Network correlation
…
Looking numerically at the errors

Finally, the dataframe with the calculated errors between the z from the correlation and the z read from the chart:

as_tibble(smry_tpr_ppr)

# A tibble: 112 x 9
   Tpr     Ppr     RMSE     MPE   MAPE       MSE       RSS      MAE   RMLSE
   <chr> <dbl>    <dbl>   <dbl>  <dbl>     <dbl>     <dbl>    <dbl>   <dbl>
 1 1.05    0.5  3.48e-3  0.420  0.420    1.21e-5   1.21e-5  3.48e-3 1.90e-3
 2 1.05    1.5  3.92e-4 -0.155  0.155    1.54e-7   1.54e-7  3.92e-4 3.13e-4
 3 1.05    2.5  9.68e-4 -0.282  0.282    9.37e-7   9.37e-7  9.68e-4 7.21e-4
 4 1.05    3.5  1.65e-3 -0.350  0.350    2.72e-6   2.72e-6  1.65e-3 1.12e-3
 5 1.05    4.5  1.19e-3  0.199  0.199    1.41e-6   1.41e-6  1.19e-3 7.43e-4
 6 1.05    5.5  1.55e-3 -0.214  0.214    2.41e-6   2.41e-6  1.55e-3 9.00e-4
 7 1.05    6.5  4.48e-4  0.0530 0.0530   2.01e-7   2.01e-7  4.48e-4 2.43e-4
 8 1.1     0.5  7.31e-4  0.0856 0.0856   5.34e-7   5.34e-7  7.31e-4 3.94e-4
 9 1.1     1.5  4.91e-3  1.15   1.15     2.41e-5   2.41e-5  4.91e-3 3.44e-3
10 1.1     2.5  4.20e-5  0.0107 0.0107   1.76e-9   1.76e-9  4.20e-5 3.02e-5
#  with 102 more rows
…
